<?xml version="1.0" standalone="no"?>
<!DOCTYPE svg PUBLIC "-//W3C//DTD SVG 20010904//EN"
 "http://www.w3.org/TR/2001/REC-SVG-20010904/DTD/svg10.dtd">
<svg version="1.0" xmlns="http://www.w3.org/2000/svg"
 width="520.000000pt" height="520.000000pt" viewBox="0 0 520.000000 520.000000"
 preserveAspectRatio="xMidYMid meet">
<metadata>
Created by potrace 1.14, written by Peter Selinger 2001-2017
</metadata>
<g transform="translate(0.000000,520.000000) scale(0.100000,-0.100000)"
fill="#000000" stroke="none">
<path d="M2513 5185 c-32 -7 -73 -28 -106 -53 -30 -23 -56 -42 -59 -42 -3 0
-45 -25 -93 -55 -49 -30 -98 -55 -111 -55 -13 0 -47 10 -76 21 -103 42 -142
49 -238 50 -126 0 -187 -18 -295 -85 -22 -14 -55 -33 -72 -42 -36 -18 -103
-87 -104 -107 0 -6 -3 -21 -6 -32 -9 -39 -10 -179 -1 -213 5 -19 11 -43 13
-52 2 -10 17 -76 34 -147 17 -70 30 -135 28 -144 -3 -20 -64 -97 -124 -157
-24 -24 -43 -47 -43 -52 0 -4 -18 -5 -40 -3 -34 4 -40 2 -41 -14 0 -10 -2 -36
-5 -58 -11 -121 -10 -170 2 -183 10 -9 13 -34 11 -81 -5 -90 -8 -94 -63 -71
-36 16 -49 17 -64 8 -23 -14 -58 -74 -86 -148 -12 -30 -27 -68 -34 -85 -6 -16
-11 -31 -10 -33 1 -2 -5 -13 -12 -25 -8 -12 -31 -65 -52 -117 -22 -52 -49
-119 -62 -148 -13 -29 -24 -55 -24 -58 0 -2 -18 -43 -40 -90 -22 -47 -40 -87
-40 -89 0 -1 -12 -29 -27 -61 -14 -33 -27 -63 -28 -69 -8 -37 -54 -111 -98
-157 -186 -196 -166 -159 -182 -328 -3 -30 -7 -64 -9 -75 -2 -11 -7 -40 -11
-65 -4 -25 -9 -52 -10 -60 -2 -8 -6 -35 -9 -60 -3 -25 -8 -56 -11 -70 -3 -14
-8 -41 -11 -60 -5 -41 -6 -45 -34 -215 -11 -71 -23 -143 -26 -160 -3 -16 -7
-43 -9 -60 -1 -16 -8 -59 -15 -95 -7 -36 -13 -74 -15 -85 -1 -11 -5 -38 -9
-60 -4 -22 -9 -53 -11 -70 -13 -89 -27 -137 -66 -223 -16 -34 -27 -64 -26 -65
1 -2 -6 -15 -15 -29 -41 -62 -60 -149 -65 -294 -3 -85 0 -156 6 -180 13 -49
54 -107 146 -209 66 -74 71 -77 105 -72 76 12 87 16 280 104 52 24 288 111
320 118 71 15 523 230 600 285 17 12 30 18 30 14 0 -3 6 -2 13 4 10 9 234 140
352 207 472 267 628 358 775 454 31 20 64 41 75 48 11 7 119 74 240 149 338
210 426 264 432 264 3 0 21 11 40 26 18 14 33 22 33 18 0 -4 8 0 18 8 16 14
359 216 517 304 38 21 79 44 90 51 11 7 31 18 45 25 14 7 41 22 60 33 19 12
79 45 134 74 54 29 114 62 135 73 20 12 97 52 171 91 74 38 142 76 151 83 9 8
19 11 22 7 4 -3 7 0 7 7 0 7 3 11 6 7 3 -3 32 10 64 29 32 19 61 34 65 34 3 0
31 16 61 35 30 19 57 35 60 35 4 0 113 67 123 76 9 8 9 197 0 222 -6 15 -12
34 -14 42 -2 8 -13 40 -24 70 -19 50 -36 130 -33 155 1 6 4 51 6 102 4 94 -4
124 -39 159 -8 9 -20 25 -26 36 -26 48 -105 134 -147 160 -21 12 -43 28 -50
35 -7 7 -17 13 -21 13 -13 0 -101 87 -102 101 -1 8 -2 55 -4 104 -2 71 -7 99
-25 133 -12 23 -27 42 -33 42 -6 0 -8 3 -4 6 3 3 -19 44 -49 90 -30 46 -54 86
-54 89 0 8 -20 32 -55 67 -20 20 -70 44 -145 72 -281 105 -374 170 -524 370
-46 60 -79 91 -147 136 -169 114 -201 125 -300 103 -87 -19 -96 -21 -154 -28
-45 -6 -91 -15 -135 -26 -13 -4 -16 1 -19 35 -1 19 -92 109 -149 148 -26 18
-75 47 -110 64 -58 29 -71 31 -165 31 -56 1 -125 -5 -154 -12z"/>
</g>
</svg>
